%YAML 1.1
%TAG !u! tag:unity3d.com,2011:
--- !u!114 &11400000
MonoBehaviour:
  m_ObjectHideFlags: 0
  m_CorrespondingSourceObject: {fileID: 0}
  m_PrefabInstance: {fileID: 0}
  m_PrefabAsset: {fileID: 0}
  m_GameObject: {fileID: 0}
  m_Enabled: 1
  m_EditorHideFlags: 0
  m_Script: {fileID: 11500000, guid: 39796be365716744fb69f9ea3ae8a8fe, type: 3}
  m_Name: New Question 12
  m_EditorClassIdentifier: 
  _questionImage: {fileID: 0}
  _questionImageWidth: 0
  _questionImageHeight: 0
  _questionImageScale: 1
  _isQuestionImageEnable: 0
  _description: "13. Calculate the value of x and y that satisfy both of the following
    equations: x \u2013 2y = 1, x+y/3 = 6"
  _answer: y=15/7,x=37/7
  _points: 3
