%YAML 1.1
%TAG !u! tag:unity3d.com,2011:
--- !u!114 &11400000
MonoBehaviour:
  m_ObjectHideFlags: 0
  m_CorrespondingSourceObject: {fileID: 0}
  m_PrefabInstance: {fileID: 0}
  m_PrefabAsset: {fileID: 0}
  m_GameObject: {fileID: 0}
  m_Enabled: 1
  m_EditorHideFlags: 0
  m_Script: {fileID: 11500000, guid: 39796be365716744fb69f9ea3ae8a8fe, type: 3}
  m_Name: New Question 4
  m_EditorClassIdentifier: 
  _questionImage: {fileID: 0}
  _questionImageWidth: 0
  _questionImageHeight: 0
  _questionImageScale: 1
  _isQuestionImageEnable: 0
  _description: 5. Find a set of five positive integers that has a possible mode
    of 3, a median of 4 and a mean of 5
  _answer: 3,3,4,7,8
  _points: 3
